%YAML 1.1
%TAG !u! tag:unity3d.com,2011:
--- !u!1045 &1
EditorBuildSettings:
  m_ObjectHideFlags: 0
  serializedVersion: 2
  m_Scenes:
  - enabled: 1
    path: Assets/JUEGO.unity
    guid: 0e02c8163cf613a4a8c2c584a9a85a1b
  m_configObjects: {}
